EDAV Fall 2019 Final Project
…
#Top average price(different room type)
neigh_list <- dplyr::pull(avg_airbnb[1:10,1])

unique(airbnb_cleaned$room_type)

## [1] "Entire home/apt" "Private room"    "Shared room"     "Hotel room"

temp <- airbnb_cleaned %>%
  group_by(neighbourhood_cleansed, room_type) %>%
  summarize(avg_price = mean(price)) 

temp %>% filter(room_type == "Private room") %>% arrange(desc(avg_price))

## # A tibble: 202 x 3
## # Groups:   neighbourhood_cleansed [202]
##    neighbourhood_cleansed room_type    avg_price
##    <chr>                  <chr>            <dbl>
##  1 Bay Terrace            Private room      265 
##  2 Breezy Point           Private room      195 
##  3 Belle Harbor           Private room      178.
##  4 Theater District       Private room      175.
##  5 Midtown                Private room      171.
##  6 Tribeca                Private room      151.
##  7 NoHo                   Private room      139.
##  8 West Village           Private room      138.
##  9 Murray Hill            Private room      136 
## 10 SoHo                   Private room      132.
## #  with 192 more rows
…
